^E:\VISUAL STUDIO\SOURCE\REPOS\PONG_SDL2\PONG_SDL2\DEBUG\BALL.OBJ|E:\VISUAL STUDIO\SOURCE\REPOS\PONG_SDL2\PONG_SDL2\DEBUG\PADDLE.OBJ|E:\VISUAL STUDIO\SOURCE\REPOS\PONG_SDL2\PONG_SDL2\DEBUG\PONG.OBJ|E:\VISUAL STUDIO\SOURCE\REPOS\PONG_SDL2\PONG_SDL2\DEBUG\SCOREBOARD.OBJ|E:\VISUAL STUDIO\SOURCE\REPOS\PONG_SDL2\PONG_SDL2\DEBUG\SOURCE.OBJ
E:\VISUAL STUDIO\SOURCE\REPOS\PONG_SDL2\DEBUG\PONG_SDL2.EXE
E:\VISUAL STUDIO\SOURCE\REPOS\PONG_SDL2\PONG_SDL2\DEBUG\PONG_SDL2.ILK
E:\VISUAL STUDIO\SOURCE\REPOS\PONG_SDL2\DEBUG\PONG_SDL2.PDB
